<?xml version="1.0" encoding="UTF-8" standalone="no"?>
<svg width="30px" height="30px" viewBox="0 0 30 30" version="1.1" xmlns="http://www.w3.org/2000/svg" xmlns:xlink="http://www.w3.org/1999/xlink">
    <!-- Generator: Sketch 44.1 (41455) - http://www.bohemiancoding.com/sketch -->
    <title>Circular-Arrow-Coral-Hover</title>
    <desc>Created with Sketch.</desc>
    <defs>
        <rect id="path-1" x="0" y="0" width="30" height="30" rx="15"></rect>
    </defs>
    <g id="Symbols" stroke="none" stroke-width="1" fill="none" fill-rule="evenodd">
        <g id="Circular-Arrow-Coral-Hover">
            <g id="Rectangle-2">
                <use fill-opacity="0.99000001" fill="#FC534C" fill-rule="evenodd" xlink:href="#path-1"></use>
                <rect stroke="#FF533D" stroke-width="2" x="1" y="1" width="28" height="28" rx="14"></rect>
            </g>
            <polyline id="Stroke-3" stroke-opacity="0.99000001" stroke="#FFFFFF" stroke-width="2" stroke-linecap="round" stroke-linejoin="round" points="12 8 21 15.4995512 12 23"></polyline>
        </g>
    </g>
</svg>