{
    "key": "group_599b28346105e",
    "title": "Post Image",
    "fields": [
        {
            "key": "field_599b284799279",
            "label": "Thumbnail Image",
            "name": "post_thumbnail_image",
            "type": "image_crop",
            "instructions": "Used only on the Media & Insights Highlights module.",
            "required": 0,
            "conditional_logic": 0,
            "wrapper": {
                "width": "",
                "class": "",
                "id": ""
            },
            "crop_type": "hard",
            "target_size": "custom",
            "width": 200,
            "height": 200,
            "preview_size": "thumbnail",
            "force_crop": "yes",
            "save_in_media_library": "yes",
            "save_format": "url",
            "library": "all",
            "retina_mode": "no"
        }
    ],
    "location": [
        [
            {
                "param": "post_type",
                "operator": "==",
                "value": "post"
            }
        ]
    ],
    "menu_order": 2,
    "position": "side",
    "style": "default",
    "label_placement": "top",
    "instruction_placement": "label",
    "hide_on_screen": "",
    "active": 1,
    "description": "",
    "modified": 1504047084
}